{
    "Russia":"🇷🇺",
    "Saudi Arabia":"🇸🇦",
    "Spain":"🇪🇸",
    "Portugal":"🇵🇹",
    "England":"🏴󠁧󠁢󠁥󠁮󠁧󠁿",
    "Egypt":"🇪🇬",
    "Senegal":"🇸🇳",
    "Germany":"🇩🇪",
    "Croatia":"🇭🇷",
    "Argentina":"🇦🇷",
    "Brazil":"🇧🇷",
    "Uruguay":"🇺🇾",
    "France":"🇫🇷",
    "Colombia":"🇨🇴",
    "Iran":"🇮🇷",
    "South Korea":"🇰🇷",
    "Australia":"🇦🇺",
    "Nigeria":"🇳🇬",
    "Poland":"🇵🇱",
    "Iceland":"🇮🇸",
    "Serbia":"🇷🇸",
    "Panama":"🇵🇦",
    "Swistzerland":"🇨🇭",
    "Morocco":"🇲🇦",
    "Tunisia":"🇹🇳",
    "Denmark":"🇩🇰",
    "Costa Rica":"🇨🇷",
    "Japan":"🇯🇵",
    "Mexico":"🇲🇽",
    "Peru":"🇵🇪",
    "Sweden":"🇸🇪",
    "Belgium":"🇧🇪"
}