{
  "type": "service_account",
  "project_id": "whatsappjarvis",
  "private_key_id": "c12aa5c8bdf630874cf7a4367c97068b0ec195dd",
  "private_key": "-----BEGIN PRIVATE KEY-----\nMIIEvQIBADANBgkqhkiG9w0BAQEFAASCBKcwggSjAgEAAoIBAQDF1WwFlA6XHF0x\nbpFpNWW97VA3pPmiXiuIMIKpQNkx4gBvRVU9gkOOH8/aOEAjuyfWBJF2BPw8BA4L\n6j3EhKGLkG9cU5MM+ogTEk30cFXejpm3aUMLqBK688Up/voYqhU36gP6S+cI6i0w\nz0Z4ZM8QnXa+xdIHdPxJz/qOBw0UJZHiFgvwao3XpuPSYJRzx9WQgQsVG6uifeG6\nhHHmJhRO7NuDgu8m9t5yLQqlwYAASqkx4Iq2mhpMeftnhXcWlqmtYAsf4+wjisK6\nHjm5nPMKLClkLcROpqqOAnvdzv0pnwCoRycUh2luKJyIFjDyWQh/q9cy/IEhCFMa\nbrRMIbFLAgMBAAECggEAA1Em7K2vqZtJTrpesse5QHwkTlfe8vjRkbN/2qxNLU0a\nRRisVgnYmHSdF2NpDpBP7y0yw9VP5gZgC+rDWrJUmRKfY19oBZ2FFDjILiiHWrdu\nXrO48uRAXXptMbKQ6UKfdMlg2Vyrb4FUUk9aDEu4aGa+JnMKU04EADgoqHf4IVXR\nCwTmSkTmRiUo8/ACNP7sB2BtGD4XwuuvoSlSqBM2gzuBPoL/KQ58HSzm8jX65mkh\n2zLd7MY0rdihcQuqXRhfksa9qHkht1lX2pPdHhlTI2Grjjzj3KYLK9OZb/nTXGJM\nuuWvJ9uhfs/N1YMRC+zzFnE7Jr9ZsqCbGXtRb0zkNQKBgQDoDdM8uSWxe0CYvPDN\nGp6XxhteeQsK8kQc+UX7E712r8UWs/uyUrqpVmvzXh8Yix0AqmcBY3TGTTKj2tjT\n960DIjNhaO4ZPqRxGgG8L26ssZ/h5tp5J/1wdzzk8aGeXcZmPem9MNW5Q0cvH2f9\n6Gx8MYAYK9eWznT4vCt5ZTnYjwKBgQDaP5kN7KJZ4ofRmo03Xn1M8Si4JDHdTCL2\n109bvjWI+jSWe9WX6NvBUlgbkEMNjhldvrchHRC4g3VTglIl1heB2ql5jj0b0dIe\ni3swFaEdXzt9mZEWEAuzV/EOMBsKzIvjo9oU2A5oRPtK2uZfEp9kQkrndDbx3E8n\ntvemPJphhQKBgQC28WdOYRzRTjz/7TzeRhUvzHP5R+4nxBVkzjSYm9hrgGkd2+kb\njdMw+zwB0nsra0kDJFQuqQz/5Q5+VWNJwOI6LTVan1HOvy7/J6SkirRzG1nTy58D\nkz5f8vEkAUcMRhvKsRbcG2rzMpIlGVpvt1QHmTLGW5IMh1l6W0be3qn7CwKBgAFx\n/l97O7AAsgmPTnQZahcCWdSuWK4wfOLJljrzTYN0tLhyZX22Cw6Crxavo+IJGN3o\nD2pmuN+f7zz4VfbuLgWsHwcxC/KNNykAn3Y4DnMVWF2CkNVmkc1EPdJsOyGdLSf6\nw8zziVTjcA6U2IW0p92QGtLhkCOV4+hNa+Jr8FHJAoGAU3Z7Icl3d5GKoM+nKfRQ\nr+cmykp6WJL0kEdXgYGWIF8OsAiW0zsAjak2dhsCwGchITo0pCYt7j/5DAUqxk6s\n5i5UBaS/fY7bAOTFGTx0Zc9/F+38XuxRiAg3G+rUXyO+BgycinouTrS1bPFpzU33\na4gfzzXw1+JDXcNjIf8Q/Vk=\n-----END PRIVATE KEY-----\n",
  "client_email": "whatsappjarvis@appspot.gserviceaccount.com",
  "client_id": "101751127296294140381",
  "auth_uri": "https://accounts.google.com/o/oauth2/auth",
  "token_uri": "https://oauth2.googleapis.com/token",
  "auth_provider_x509_cert_url": "https://www.googleapis.com/oauth2/v1/certs",
  "client_x509_cert_url": "https://www.googleapis.com/robot/v1/metadata/x509/whatsappjarvis%40appspot.gserviceaccount.com"
}
